M48
; DRILL file {KiCad 5.1.6+dfsg1-1~bpo10+1} date Sun Aug 30 16:17:00 2020
; FORMAT={3:3/ absolute / metric / suppress leading zeros}
; #@! TF.CreationDate,2020-08-30T16:17:00-04:00
; #@! TF.GenerationSoftware,Kicad,Pcbnew,5.1.6+dfsg1-1~bpo10+1
FMAT,2
METRIC,TZ
T1C0.330
T2C0.800
T3C0.889
T4C0.919
T5C1.001
T6C1.016
T7C1.100
%
G90
G05
T1
X128778Y-108585
X128803Y-106604
X128803Y-113944
X130480Y-101625
X138811Y-107594
X144716Y-99305
X145212Y-105689
X145440Y-108560
X146926Y-99301
X149073Y-114402
X149276Y-109703
X149454Y-99898
X152654Y-107940
X153090Y-105543
X153099Y-106776
X153467Y-113817
X153581Y-112354
X154813Y-113030
X156629Y-108420
X158702Y-109304
X158704Y-106911
X159336Y-115559
X159926Y-114186
X160909Y-100879
X161176Y-114186
X161214Y-108560
X161478Y-105849
X162484Y-108539
X162550Y-105279
X162705Y-101807
X162841Y-106875
X165290Y-107366
X165290Y-106363
X165303Y-100876
X167742Y-112116
X167754Y-102946
X168923Y-107340
T2
X177251Y-105334
X177251Y-110214
T3
X127381Y-106619
X127381Y-108621
T4
X127381Y-104120
X127381Y-111120
T6
X138190Y-117880
X140730Y-117880
X143270Y-117880
X145810Y-117880
X148350Y-117880
X150890Y-117880
X153430Y-117880
X155970Y-117880
X158510Y-117880
X161050Y-117880
X163590Y-117880
X166130Y-117880
X168670Y-117880
X171210Y-117880
X173750Y-117880
X176290Y-117880
X138190Y-97310
X140730Y-97310
X143270Y-97310
X145810Y-97310
X148350Y-97310
X150890Y-97310
X153430Y-97310
X155970Y-97310
X158510Y-97310
X161050Y-97310
X163590Y-97310
X166130Y-97310
X168670Y-97310
X171210Y-97310
X173750Y-97310
X176290Y-97310
T7
X125280Y-105369
X125280Y-109870
T5
G00X124531Y-101920
M15
G01X126030Y-101920
M16
G05
G00X124531Y-113320
M15
G01X126030Y-113320
M16
G05
T0
M30
