EESchema Schematic File Version 2
LIBS:stm32f103
LIBS:power
LIBS:device
LIBS:conn
LIBS:diynuk-cache
EELAYER 25 0
EELAYER END
$Descr A4 11693 8268
encoding utf-8
Sheet 1 1
Title "DIYNuk"
Date "2018-01-02"
Rev ""
Comp ""
Comment1 ""
Comment2 ""
Comment3 ""
Comment4 ""
$EndDescr
$Comp
L STM32F103CB U1
U 1 1 5A4C1072
P 5550 3650
F 0 "U1" H 4650 4800 60  0000 C CNN
F 1 "STM32F103CB" H 5500 3900 60  0000 C CNN
F 2 "Housings_QFP:LQFP-48_7x7mm_Pitch0.5mm" H 5550 3650 60  0001 C CNN
F 3 "" H 5550 3650 60  0001 C CNN
	1    5550 3650
	1    0    0    -1  
$EndComp
$Comp
L C C3
U 1 1 5A4CA1F6
P 3625 3950
F 0 "C3" H 3650 4050 50  0000 L CNN
F 1 "0.1uF" H 3650 3850 50  0000 L CNN
F 2 "Capacitors_SMD:C_1206_HandSoldering" H 3663 3800 50  0001 C CNN
F 3 "" H 3625 3950 50  0000 C CNN
	1    3625 3950
	1    0    0    -1  
$EndComp
$Comp
L GND #PWR01
U 1 1 5A4CA2A0
P 4000 3875
F 0 "#PWR01" H 4000 3625 50  0001 C CNN
F 1 "GND" H 4000 3725 50  0000 C CNN
F 2 "" H 4000 3875 50  0000 C CNN
F 3 "" H 4000 3875 50  0000 C CNN
	1    4000 3875
	1    0    0    -1  
$EndComp
$Comp
L +3.3V #PWR02
U 1 1 5A4CA368
P 3325 3975
F 0 "#PWR02" H 3325 3825 50  0001 C CNN
F 1 "+3.3V" H 3325 4115 50  0000 C CNN
F 2 "" H 3325 3975 50  0000 C CNN
F 3 "" H 3325 3975 50  0000 C CNN
	1    3325 3975
	1    0    0    -1  
$EndComp
$Comp
L Crystal Y1
U 1 1 5A4CA632
P 3150 3375
F 0 "Y1" H 3150 3525 50  0000 C CNN
F 1 "12MHz" H 3150 3225 50  0000 C CNN
F 2 "Crystals:Crystal_HC49-4H_Vertical" H 3150 3375 50  0001 C CNN
F 3 "" H 3150 3375 50  0000 C CNN
	1    3150 3375
	0    1    1    0   
$EndComp
$Comp
L C C1
U 1 1 5A4CA761
P 2800 3100
F 0 "C1" H 2825 3200 50  0000 L CNN
F 1 "27pF" H 2825 3000 50  0000 L CNN
F 2 "Capacitors_SMD:C_1206_HandSoldering" H 2838 2950 50  0001 C CNN
F 3 "" H 2800 3100 50  0000 C CNN
	1    2800 3100
	0    1    1    0   
$EndComp
$Comp
L C C2
U 1 1 5A4CA7BE
P 2800 3600
F 0 "C2" H 2825 3700 50  0000 L CNN
F 1 "27pF" H 2825 3500 50  0000 L CNN
F 2 "Capacitors_SMD:C_1206_HandSoldering" H 2838 3450 50  0001 C CNN
F 3 "" H 2800 3600 50  0000 C CNN
	1    2800 3600
	0    1    1    0   
$EndComp
$Comp
L GND #PWR03
U 1 1 5A4CA841
P 2250 3550
F 0 "#PWR03" H 2250 3300 50  0001 C CNN
F 1 "GND" H 2250 3400 50  0000 C CNN
F 2 "" H 2250 3550 50  0000 C CNN
F 3 "" H 2250 3550 50  0000 C CNN
	1    2250 3550
	1    0    0    -1  
$EndComp
$Comp
L GND #PWR04
U 1 1 5A4CABEC
P 5700 5275
F 0 "#PWR04" H 5700 5025 50  0001 C CNN
F 1 "GND" H 5700 5125 50  0000 C CNN
F 2 "" H 5700 5275 50  0000 C CNN
F 3 "" H 5700 5275 50  0000 C CNN
	1    5700 5275
	1    0    0    -1  
$EndComp
$Comp
L GND #PWR05
U 1 1 5A4BD694
P 9775 4850
F 0 "#PWR05" H 9775 4600 50  0001 C CNN
F 1 "GND" H 9775 4700 50  0000 C CNN
F 2 "" H 9775 4850 50  0000 C CNN
F 3 "" H 9775 4850 50  0000 C CNN
	1    9775 4850
	1    0    0    -1  
$EndComp
$Comp
L USB_A J1
U 1 1 5A4CAC8C
P 9875 4350
F 0 "J1" H 10075 4150 50  0000 C CNN
F 1 "USB_A" H 9825 4550 50  0000 C CNN
F 2 "diynuk-extras:USB-A-PLUG" V 9825 4250 50  0001 C CNN
F 3 "" V 9825 4250 50  0000 C CNN
	1    9875 4350
	0    1    1    0   
$EndComp
$Comp
L LED D1
U 1 1 5A4BF4F5
P 5500 5750
F 0 "D1" H 5500 5850 50  0000 C CNN
F 1 "LED" H 5500 5650 50  0000 C CNN
F 2 "LEDs:LED_1206" H 5500 5750 50  0001 C CNN
F 3 "" H 5500 5750 50  0000 C CNN
	1    5500 5750
	0    -1   -1   0   
$EndComp
$Comp
L R R1
U 1 1 5A4BF60C
P 5500 5450
F 0 "R1" V 5580 5450 50  0000 C CNN
F 1 "1K" V 5500 5450 50  0000 C CNN
F 2 "Resistors_SMD:R_1206_HandSoldering" V 5430 5450 50  0001 C CNN
F 3 "" H 5500 5450 50  0000 C CNN
	1    5500 5450
	-1   0    0    1   
$EndComp
$Comp
L GND #PWR06
U 1 1 5A4BFE8F
P 5500 6000
F 0 "#PWR06" H 5500 5750 50  0001 C CNN
F 1 "GND" H 5500 5850 50  0000 C CNN
F 2 "" H 5500 6000 50  0000 C CNN
F 3 "" H 5500 6000 50  0000 C CNN
	1    5500 6000
	1    0    0    -1  
$EndComp
$Comp
L C C4
U 1 1 5A4C33AF
P 4950 1675
F 0 "C4" H 4975 1775 50  0000 L CNN
F 1 "0.1uF" H 4975 1575 50  0000 L CNN
F 2 "Capacitors_SMD:C_1206_HandSoldering" H 4988 1525 50  0001 C CNN
F 3 "" H 4950 1675 50  0000 C CNN
	1    4950 1675
	0    1    1    0   
$EndComp
$Comp
L GND #PWR07
U 1 1 5A4C3404
P 5250 1750
F 0 "#PWR07" H 5250 1500 50  0001 C CNN
F 1 "GND" H 5250 1600 50  0000 C CNN
F 2 "" H 5250 1750 50  0000 C CNN
F 3 "" H 5250 1750 50  0000 C CNN
	1    5250 1750
	1    0    0    -1  
$EndComp
$Comp
L +3.3V #PWR08
U 1 1 5A4C35FD
P 4650 1875
F 0 "#PWR08" H 4650 1725 50  0001 C CNN
F 1 "+3.3V" H 4650 2015 50  0000 C CNN
F 2 "" H 4650 1875 50  0000 C CNN
F 3 "" H 4650 1875 50  0000 C CNN
	1    4650 1875
	0    -1   -1   0   
$EndComp
$Comp
L +3.3V #PWR09
U 1 1 5A4C52BA
P 6425 4900
F 0 "#PWR09" H 6425 4750 50  0001 C CNN
F 1 "+3.3V" H 6425 5040 50  0000 C CNN
F 2 "" H 6425 4900 50  0000 C CNN
F 3 "" H 6425 4900 50  0000 C CNN
	1    6425 4900
	1    0    0    -1  
$EndComp
$Comp
L C C5
U 1 1 5A4C52EC
P 6275 5200
F 0 "C5" H 6300 5300 50  0000 L CNN
F 1 "0.1uF" H 6300 5100 50  0000 L CNN
F 2 "Capacitors_SMD:C_1206_HandSoldering" H 6313 5050 50  0001 C CNN
F 3 "" H 6275 5200 50  0000 C CNN
	1    6275 5200
	0    1    1    0   
$EndComp
$Comp
L GND #PWR010
U 1 1 5A4C5398
P 6000 5375
F 0 "#PWR010" H 6000 5125 50  0001 C CNN
F 1 "GND" H 6000 5225 50  0000 C CNN
F 2 "" H 6000 5375 50  0000 C CNN
F 3 "" H 6000 5375 50  0000 C CNN
	1    6000 5375
	1    0    0    -1  
$EndComp
$Comp
L GND #PWR011
U 1 1 5A4C5C48
P 7825 3350
F 0 "#PWR011" H 7825 3100 50  0001 C CNN
F 1 "GND" H 7825 3200 50  0000 C CNN
F 2 "" H 7825 3350 50  0000 C CNN
F 3 "" H 7825 3350 50  0000 C CNN
	1    7825 3350
	1    0    0    -1  
$EndComp
$Comp
L C C6
U 1 1 5A4C5CD5
P 7825 3050
F 0 "C6" H 7850 3150 50  0000 L CNN
F 1 "0.1uF" H 7850 2950 50  0000 L CNN
F 2 "Capacitors_SMD:C_1206_HandSoldering" H 7863 2900 50  0001 C CNN
F 3 "" H 7825 3050 50  0000 C CNN
	1    7825 3050
	1    0    0    -1  
$EndComp
$Comp
L +3.3V #PWR012
U 1 1 5A4C5D40
P 7350 2975
F 0 "#PWR012" H 7350 2825 50  0001 C CNN
F 1 "+3.3V" H 7350 3115 50  0000 C CNN
F 2 "" H 7350 2975 50  0000 C CNN
F 3 "" H 7350 2975 50  0000 C CNN
	1    7350 2975
	1    0    0    -1  
$EndComp
$Comp
L R R2
U 1 1 5A51223D
P 8350 4350
F 0 "R2" V 8430 4350 50  0000 C CNN
F 1 "22R" V 8350 4350 50  0000 C CNN
F 2 "Resistors_SMD:R_1206_HandSoldering" V 8280 4350 50  0001 C CNN
F 3 "" H 8350 4350 50  0000 C CNN
	1    8350 4350
	0    1    1    0   
$EndComp
$Comp
L R R3
U 1 1 5A5122FF
P 8350 4500
F 0 "R3" V 8430 4500 50  0000 C CNN
F 1 "22R" V 8350 4500 50  0000 C CNN
F 2 "Resistors_SMD:R_1206_HandSoldering" V 8280 4500 50  0001 C CNN
F 3 "" H 8350 4500 50  0000 C CNN
	1    8350 4500
	0    1    1    0   
$EndComp
$Comp
L R R4
U 1 1 5A51B602
P 8725 4000
F 0 "R4" V 8805 4000 50  0000 C CNN
F 1 "1.5k" V 8725 4000 50  0000 C CNN
F 2 "Resistors_SMD:R_1206_HandSoldering" V 8655 4000 50  0001 C CNN
F 3 "" H 8725 4000 50  0000 C CNN
	1    8725 4000
	1    0    0    -1  
$EndComp
$Comp
L +3.3V #PWR013
U 1 1 5A51B6F3
P 8725 3750
F 0 "#PWR013" H 8725 3600 50  0001 C CNN
F 1 "+3.3V" H 8725 3890 50  0000 C CNN
F 2 "" H 8725 3750 50  0000 C CNN
F 3 "" H 8725 3750 50  0000 C CNN
	1    8725 3750
	1    0    0    -1  
$EndComp
$Comp
L CP C9
U 1 1 5A520CB7
P 9300 1975
F 0 "C9" H 9325 2075 50  0000 L CNN
F 1 "10uF" H 9325 1875 50  0000 L CNN
F 2 "SMD_Packages:SMD-1206_Pol" H 9338 1825 50  0001 C CNN
F 3 "" H 9300 1975 50  0000 C CNN
	1    9300 1975
	1    0    0    -1  
$EndComp
$Comp
L CP C8
U 1 1 5A520E58
P 8525 3275
F 0 "C8" H 8550 3375 50  0000 L CNN
F 1 "10uF" H 8550 3175 50  0000 L CNN
F 2 "SMD_Packages:SMD-1206_Pol" H 8563 3125 50  0001 C CNN
F 3 "" H 8525 3275 50  0000 C CNN
	1    8525 3275
	0    1    1    0   
$EndComp
$Comp
L GND #PWR014
U 1 1 5A52199A
P 8200 3350
F 0 "#PWR014" H 8200 3100 50  0001 C CNN
F 1 "GND" H 8200 3200 50  0000 C CNN
F 2 "" H 8200 3350 50  0000 C CNN
F 3 "" H 8200 3350 50  0000 C CNN
	1    8200 3350
	1    0    0    -1  
$EndComp
$Comp
L GND #PWR015
U 1 1 5A521D4D
P 9300 2125
F 0 "#PWR015" H 9300 1875 50  0001 C CNN
F 1 "GND" H 9300 1975 50  0000 C CNN
F 2 "" H 9300 2125 50  0000 C CNN
F 3 "" H 9300 2125 50  0000 C CNN
	1    9300 2125
	1    0    0    -1  
$EndComp
$Comp
L GND #PWR016
U 1 1 5A5224D8
P 9300 2400
F 0 "#PWR016" H 9300 2150 50  0001 C CNN
F 1 "GND" H 9300 2250 50  0000 C CNN
F 2 "" H 9300 2400 50  0000 C CNN
F 3 "" H 9300 2400 50  0000 C CNN
	1    9300 2400
	1    0    0    -1  
$EndComp
$Comp
L +3.3V #PWR017
U 1 1 5A522F5A
P 8675 1450
F 0 "#PWR017" H 8675 1300 50  0001 C CNN
F 1 "+3.3V" H 8675 1590 50  0000 C CNN
F 2 "" H 8675 1450 50  0000 C CNN
F 3 "" H 8675 1450 50  0000 C CNN
	1    8675 1450
	1    0    0    -1  
$EndComp
Text GLabel 6100 2400 1    60   Input ~ 0
PA14
Text GLabel 6800 3300 2    60   Input ~ 0
PA13
Text GLabel 1995 6290 2    60   Input ~ 0
PB9
Text GLabel 3455 4985 0    60   Input ~ 0
PB8
Text GLabel 3455 5085 0    60   Input ~ 0
PB7
Text GLabel 3455 5185 0    60   Input ~ 0
PB6
Text GLabel 3455 5285 0    60   Input ~ 0
PB5
Text GLabel 3455 5385 0    60   Input ~ 0
PB4
Text GLabel 3455 5485 0    60   Input ~ 0
PB3
Text GLabel 3455 5585 0    60   Input ~ 0
PA15
Text GLabel 3455 5685 0    60   Input ~ 0
PA14
Text GLabel 3455 5785 0    60   Input ~ 0
PA13
Text GLabel 3455 5885 0    60   Input ~ 0
PA12
Text GLabel 3455 5985 0    60   Input ~ 0
PA11
Text GLabel 3455 6085 0    60   Input ~ 0
PA10
Text GLabel 3455 6185 0    60   Input ~ 0
PA9
Text GLabel 3455 6285 0    60   Input ~ 0
PA8
Text GLabel 4300 3700 0    60   Input ~ 0
NRST
Text GLabel 4300 3200 0    60   Input ~ 0
PC13
Text GLabel 4300 3300 0    60   Input ~ 0
PC14
Text GLabel 4300 3400 0    60   Input ~ 0
PC15
Text GLabel 4025 4200 0    60   Input ~ 0
PA0
Text GLabel 4025 4325 0    60   Input ~ 0
PA1
Text GLabel 4025 4450 0    60   Input ~ 0
PA2
Text GLabel 5000 4900 3    60   Input ~ 0
PA3
Text GLabel 5100 4900 3    60   Input ~ 0
PA4
Text GLabel 5200 4900 3    60   Input ~ 0
PA5
Text GLabel 5300 4900 3    60   Input ~ 0
PA6
Text GLabel 5400 4900 3    60   Input ~ 0
PA7
Text GLabel 6800 3600 2    60   Input ~ 0
PA10
Text GLabel 6800 3700 2    60   Input ~ 0
PA9
Text GLabel 6800 3800 2    60   Input ~ 0
PA8
Text GLabel 5600 4900 3    60   Input ~ 0
PB1
Text GLabel 5200 2400 1    60   Input ~ 0
PB9
Text GLabel 5300 2400 1    60   Input ~ 0
PB8
Text GLabel 5500 2400 1    60   Input ~ 0
PB7
Text GLabel 5600 2400 1    60   Input ~ 0
PB6
Text GLabel 5700 2400 1    60   Input ~ 0
PB5
Text GLabel 5800 2400 1    60   Input ~ 0
PB4
Text GLabel 5900 2400 1    60   Input ~ 0
PB3
Text GLabel 6000 2400 1    60   Input ~ 0
PA15
$Comp
L GND #PWR018
U 1 1 5A52E0B1
P 5575 1750
F 0 "#PWR018" H 5575 1500 50  0001 C CNN
F 1 "GND" H 5575 1600 50  0000 C CNN
F 2 "" H 5575 1750 50  0000 C CNN
F 3 "" H 5575 1750 50  0000 C CNN
	1    5575 1750
	1    0    0    -1  
$EndComp
$Comp
L C C11
U 1 1 5A51639D
P 7600 4800
F 0 "C11" H 7625 4900 50  0000 L CNN
F 1 "47p" H 7625 4700 50  0000 L CNN
F 2 "Capacitors_SMD:C_1206_HandSoldering" H 7638 4650 50  0001 C CNN
F 3 "" H 7600 4800 50  0000 C CNN
	1    7600 4800
	1    0    0    -1  
$EndComp
$Comp
L C C12
U 1 1 5A516422
P 7950 4800
F 0 "C12" H 7975 4900 50  0000 L CNN
F 1 "47p" H 7975 4700 50  0000 L CNN
F 2 "Capacitors_SMD:C_1206_HandSoldering" H 7988 4650 50  0001 C CNN
F 3 "" H 7950 4800 50  0000 C CNN
	1    7950 4800
	1    0    0    -1  
$EndComp
$Comp
L GND #PWR019
U 1 1 5A51667C
P 7600 5150
F 0 "#PWR019" H 7600 4900 50  0001 C CNN
F 1 "GND" H 7600 5000 50  0000 C CNN
F 2 "" H 7600 5150 50  0000 C CNN
F 3 "" H 7600 5150 50  0000 C CNN
	1    7600 5150
	1    0    0    -1  
$EndComp
$Comp
L GND #PWR020
U 1 1 5A5166BE
P 7950 5150
F 0 "#PWR020" H 7950 4900 50  0001 C CNN
F 1 "GND" H 7950 5000 50  0000 C CNN
F 2 "" H 7950 5150 50  0000 C CNN
F 3 "" H 7950 5150 50  0000 C CNN
	1    7950 5150
	1    0    0    -1  
$EndComp
Text GLabel 6800 3400 2    60   Input ~ 0
PA12
Text GLabel 6800 3500 2    60   Input ~ 0
PA11
$Comp
L +3.3V #PWR021
U 1 1 5A54DD0F
P 3050 4785
F 0 "#PWR021" H 3050 4635 50  0001 C CNN
F 1 "+3.3V" H 3050 4925 50  0000 C CNN
F 2 "" H 3050 4785 50  0000 C CNN
F 3 "" H 3050 4785 50  0000 C CNN
	1    3050 4785
	1    0    0    -1  
$EndComp
$Comp
L GND #PWR022
U 1 1 5A54E2A9
P 3050 4885
F 0 "#PWR022" H 3050 4635 50  0001 C CNN
F 1 "GND" H 3050 4735 50  0000 C CNN
F 2 "" H 3050 4885 50  0000 C CNN
F 3 "" H 3050 4885 50  0000 C CNN
	1    3050 4885
	1    0    0    -1  
$EndComp
NoConn ~ 5800 4900
NoConn ~ 5900 4900
NoConn ~ 6800 4200
NoConn ~ 6800 4100
NoConn ~ 6800 4000
NoConn ~ 6800 3900
$Comp
L CONN_01X16 P2
U 1 1 5A8DC445
P 3655 5535
F 0 "P2" H 3655 6385 50  0000 C CNN
F 1 "CONN_01X16" V 3755 5535 50  0000 C CNN
F 2 "Pin_Headers:Pin_Header_Straight_1x16" H 3655 5535 50  0001 C CNN
F 3 "" H 3655 5535 50  0000 C CNN
	1    3655 5535
	1    0    0    -1  
$EndComp
NoConn ~ 4300 3100
$Comp
L CONN_01X16 P1
U 1 1 5A8DCFD2
P 1795 5540
F 0 "P1" H 1795 6390 50  0000 C CNN
F 1 "CONN_01X16" V 1895 5540 50  0000 C CNN
F 2 "Pin_Headers:Pin_Header_Straight_1x16" H 1795 5540 50  0001 C CNN
F 3 "" H 1795 5540 50  0000 C CNN
	1    1795 5540
	-1   0    0    -1  
$EndComp
Text GLabel 1995 4990 2    60   Input ~ 0
PC13
Text GLabel 1995 5090 2    60   Input ~ 0
PC14
Text GLabel 1995 5190 2    60   Input ~ 0
PC15
Text GLabel 1995 5290 2    60   Input ~ 0
NRST
Text GLabel 1995 5390 2    60   Input ~ 0
PA0
Text GLabel 1995 5490 2    60   Input ~ 0
PA1
Text GLabel 1995 5590 2    60   Input ~ 0
PA2
Text GLabel 1995 5690 2    60   Input ~ 0
PA3
Text GLabel 1995 5790 2    60   Input ~ 0
PA4
Text GLabel 1995 5890 2    60   Input ~ 0
PA5
Text GLabel 1995 5990 2    60   Input ~ 0
PA6
Text GLabel 1995 6090 2    60   Input ~ 0
PA7
Text GLabel 1995 6190 2    60   Input ~ 0
PB1
$Comp
L GND #PWR023
U 1 1 5A8DD783
P 2440 4890
F 0 "#PWR023" H 2440 4640 50  0001 C CNN
F 1 "GND" H 2440 4740 50  0000 C CNN
F 2 "" H 2440 4890 50  0000 C CNN
F 3 "" H 2440 4890 50  0000 C CNN
	1    2440 4890
	1    0    0    -1  
$EndComp
$Comp
L +3.3V #PWR024
U 1 1 5A8E0687
P 2440 4790
F 0 "#PWR024" H 2440 4640 50  0001 C CNN
F 1 "+3.3V" H 2440 4930 50  0000 C CNN
F 2 "" H 2440 4790 50  0000 C CNN
F 3 "" H 2440 4790 50  0000 C CNN
	1    2440 4790
	1    0    0    -1  
$EndComp
$Comp
L REGULATOR U2
U 1 1 5ABA2C2A
P 8675 2375
F 0 "U2" H 8775 2125 60  0000 C CNN
F 1 "AP7333-33SRG-7" H 8675 2525 60  0000 C CNN
F 2 "TO_SOT_Packages_SMD:SOT-23" H 8675 2375 60  0001 C CNN
F 3 "" H 8675 2375 60  0000 C CNN
	1    8675 2375
	0    -1   -1   0   
$EndComp
Wire Wire Line
	3625 3800 4300 3800
Wire Wire Line
	4300 3900 4150 3900
Wire Wire Line
	4150 3900 4150 4100
Wire Wire Line
	4150 4100 3325 4100
Wire Wire Line
	3325 4100 3325 3975
Connection ~ 3625 4100
Wire Wire Line
	2950 3600 4300 3600
Wire Wire Line
	3700 3100 3700 3500
Wire Wire Line
	2950 3100 3700 3100
Wire Wire Line
	2650 3100 2650 3600
Connection ~ 2650 3400
Wire Wire Line
	5700 5275 5700 4900
Wire Wire Line
	2250 3550 2250 3400
Wire Wire Line
	2250 3400 2650 3400
Wire Wire Line
	7375 4350 8200 4350
Wire Wire Line
	7375 4350 7375 3400
Wire Wire Line
	7375 3400 6800 3400
Wire Wire Line
	7275 3500 7275 4500
Wire Wire Line
	7275 3500 6800 3500
Wire Wire Line
	8500 4350 9575 4350
Wire Wire Line
	9575 4250 9125 4250
Wire Wire Line
	9575 4450 9575 4650
Wire Wire Line
	9575 4650 9975 4650
Wire Wire Line
	9775 4850 9775 4650
Connection ~ 9775 4650
Wire Wire Line
	4000 3875 4000 3800
Connection ~ 4000 3800
Wire Wire Line
	5500 5300 5500 4900
Wire Wire Line
	5500 6000 5500 5900
Wire Wire Line
	3700 3500 4300 3500
Wire Wire Line
	5100 1675 5100 2400
Wire Wire Line
	5000 2000 5000 2400
Wire Wire Line
	5100 1675 5250 1675
Wire Wire Line
	4800 2000 5000 2000
Wire Wire Line
	4800 1675 4800 2000
Wire Wire Line
	4650 1875 4800 1875
Connection ~ 4800 1875
Wire Wire Line
	5250 1675 5250 1750
Wire Wire Line
	6000 4900 6000 5375
Wire Wire Line
	6125 5200 6000 5200
Connection ~ 6000 5200
Wire Wire Line
	6425 4900 6425 5200
Wire Wire Line
	6100 4900 6100 5000
Wire Wire Line
	6100 5000 6425 5000
Connection ~ 6425 5000
Wire Wire Line
	6800 3200 7825 3200
Wire Wire Line
	7825 3200 7825 3350
Wire Wire Line
	6800 3100 7650 3100
Wire Wire Line
	7650 3100 7650 2900
Wire Wire Line
	7650 2900 7825 2900
Connection ~ 7350 3100
Wire Wire Line
	7350 3100 7350 2975
Wire Wire Line
	9125 4500 8500 4500
Wire Wire Line
	9125 4250 9125 4500
Wire Wire Line
	7275 4500 8200 4500
Wire Wire Line
	8725 4350 8725 4150
Connection ~ 8725 4350
Wire Wire Line
	8725 3850 8725 3750
Wire Wire Line
	8375 3275 8200 3275
Wire Wire Line
	8200 3275 8200 3350
Wire Wire Line
	8675 1825 9300 1825
Wire Wire Line
	9175 2375 9300 2375
Wire Wire Line
	9300 2375 9300 2400
Wire Wire Line
	8675 1825 8675 1450
Wire Wire Line
	4300 4000 4200 4000
Wire Wire Line
	4200 4000 4200 4200
Wire Wire Line
	4200 4200 4025 4200
Wire Wire Line
	4300 4100 4250 4100
Wire Wire Line
	4025 4325 4250 4325
Wire Wire Line
	4250 4325 4250 4100
Wire Wire Line
	4025 4450 4300 4450
Wire Wire Line
	4300 4450 4300 4200
Wire Wire Line
	3150 3225 3150 3100
Connection ~ 3150 3100
Wire Wire Line
	3150 3525 3150 3600
Connection ~ 3150 3600
Wire Wire Line
	5400 2400 5400 1675
Wire Wire Line
	5400 1675 5575 1675
Wire Wire Line
	5575 1675 5575 1750
Wire Wire Line
	7600 4650 7600 4350
Connection ~ 7600 4350
Wire Wire Line
	7950 4650 7950 4500
Connection ~ 7950 4500
Wire Wire Line
	7950 5150 7950 4950
Wire Wire Line
	7600 5150 7600 4950
Wire Wire Line
	3050 4885 3455 4885
Wire Wire Line
	2440 4890 1995 4890
Wire Wire Line
	1995 4790 2440 4790
Wire Wire Line
	3050 4785 3455 4785
Wire Wire Line
	9320 3275 8675 3275
Wire Wire Line
	8675 3275 8675 2925
Wire Wire Line
	9320 3275 9320 4150
Connection ~ 9320 3588
Connection ~ 8676 2920
Connection ~ 8674 3274
Wire Wire Line
	9320 4150 9575 4150
$EndSCHEMATC
